{"data": [{"container_id": "40527766", "importer": "IMP_0212", "origin": "DE", "destination": "US", "risk_score": 0.9995, "risk_level": "CRITICAL", "weight": 15514.33, "declared_value": 264149.3806}, {"container_id": "85601517", "importer": "IMP_0231", "origin": "KR", "destination": "US", "risk_score": 0.9994, "risk_level": "CRITICAL", "weight": 22114.32, "declared_value": 48835.1483}, {"container_id": "20669969", "importer": "IMP_0305", "origin": "DE", "destination": "US", "risk_score": 0.9993000000000001, "risk_level": "CRITICAL", "weight": 19021.82, "declared_value": 64668.2434}, {"container_id": "21006975", "importer": "IMP_0053", "origin": "DE", "destination": "US", "risk_score": 0.9990000000000001, "risk_level": "CRITICAL", "weight": 10386.99, "declared_value": 327279.2296}, {"container_id": "40631460", "importer": "IMP_0024", "origin": "VN", "destination": "FR", "risk_score": 0.9987999999999999, "risk_level": "CRITICAL", "weight": 6286.59, "declared_value": 39890.9941}, {"container_id": "68569336", "importer": "IMP_0305", "origin": "VN", "destination": "FR", "risk_score": 0.9987, "risk_level": "CRITICAL", "weight": 16562.79, "declared_value": 399641.5985}, {"container_id": "76437578", "importer": "IMP_0214", "origin": "CN", "destination": "DE", "risk_score": 0.9986, "risk_level": "CRITICAL", "weight": 27344.92, "declared_value": 208293.7732}, {"container_id": "16203705", "importer": "IMP_0097", "origin": "KR", "destination": "US", "risk_score": 0.9983, "risk_level": "CRITICAL", "weight": 27903.96, "declared_value": 454459.296}, {"container_id": "77329318", "importer": "IMP_0347", "origin": "JP", "destination": "AU", "risk_score": 0.9978, "risk_level": "CRITICAL", "weight": 24125.17, "declared_value": 704762.9785}, {"container_id": "53159918", "importer": "IMP_0124", "origin": "KR", "destination": "US", "risk_score": 0.9978, "risk_level": "CRITICAL", "weight": 21968.96, "declared_value": 458671.4998}, {"container_id": "56552436", "importer": "IMP_0145", "origin": "SG", "destination": "IN", "risk_score": 0.9978, "risk_level": "CRITICAL", "weight": 26184.8, "declared_value": 140514.3178}, {"container_id": "60811161", "importer": "IMP_0294", "origin": "DE", "destination": "US", "risk_score": 0.9975, "risk_level": "CRITICAL", "weight": 4435.67, "declared_value": 174748.8519}, {"container_id": "12591489", "importer": "IMP_0085", "origin": "DE", "destination": "US", "risk_score": 0.9974, "risk_level": "CRITICAL", "weight": 26146.52, "declared_value": 66762.5806}, {"container_id": "47489996", "importer": "IMP_0250", "origin": "JP", "destination": "AU", "risk_score": 0.9965999999999999, "risk_level": "CRITICAL", "weight": 3886.84, "declared_value": 729352.713}, {"container_id": "40315391", "importer": "IMP_0334", "origin": "DE", "destination": "US", "risk_score": 0.9965, "risk_level": "CRITICAL", "weight": 12818.13, "declared_value": 96532.0059}, {"container_id": "62462868", "importer": "IMP_0365", "origin": "SG", "destination": "IN", "risk_score": 0.996, "risk_level": "CRITICAL", "weight": 22774.09, "declared_value": 172463.1163}, {"container_id": "87852754", "importer": "IMP_0340", "origin": "KR", "destination": "US", "risk_score": 0.9956999999999999, "risk_level": "CRITICAL", "weight": 14958.52, "declared_value": 203038.0732}, {"container_id": "50564802", "importer": "IMP_0012", "origin": "AE", "destination": "ZA", "risk_score": 0.9956999999999999, "risk_level": "CRITICAL", "weight": 15364.58, "declared_value": 186285.9774}, {"container_id": "54685175", "importer": "IMP_0182", "origin": "KR", "destination": "US", "risk_score": 0.9954000000000001, "risk_level": "CRITICAL", "weight": 19902.28, "declared_value": 279286.5195}, {"container_id": "27334894", "importer": "IMP_0101", "origin": "DE", "destination": "US", "risk_score": 0.9953, "risk_level": "CRITICAL", "weight": 24148.66, "declared_value": 372677.3609}, {"container_id": "76344448", "importer": "IMP_0204", "origin": "DE", "destination": "US", "risk_score": 0.995, "risk_level": "CRITICAL", "weight": 10676.88, "declared_value": 18380.4194}, {"container_id": "38471620", "importer": "IMP_0267", "origin": "SG", "destination": "IN", "risk_score": 0.9948999999999999, "risk_level": "CRITICAL", "weight": 16466.41, "declared_value": 78858.7535}, {"container_id": "53715094", "importer": "IMP_0396", "origin": "CN", "destination": "US", "risk_score": 0.9948, "risk_level": "CRITICAL", "weight": 16830.96, "declared_value": 162881.4044}, {"container_id": "46375359", "importer": "IMP_0189", "origin": "CN", "destination": "US", "risk_score": 0.9943000000000001, "risk_level": "CRITICAL", "weight": 28512.45, "declared_value": 691510.954}, {"container_id": "79384728", "importer": "IMP_0074", "origin": "VN", "destination": "FR", "risk_score": 0.9942, "risk_level": "CRITICAL", "weight": 16637.16, "declared_value": 103279.5189}, {"container_id": "29270294", "importer": "IMP_0217", "origin": "VN", "destination": "FR", "risk_score": 0.9940000000000001, "risk_level": "CRITICAL", "weight": 16236.71, "declared_value": 155078.0959}, {"container_id": "28897875", "importer": "IMP_0331", "origin": "JP", "destination": "AU", "risk_score": 0.9939, "risk_level": "CRITICAL", "weight": 24422.27, "declared_value": 48728.8749}, {"container_id": "76849184", "importer": "IMP_0374", "origin": "KR", "destination": "US", "risk_score": 0.9937, "risk_level": "CRITICAL", "weight": 29441.51, "declared_value": 735817.7377}, {"container_id": "90690529", "importer": "IMP_0351", "origin": "DE", "destination": "US", "risk_score": 0.9934000000000001, "risk_level": "CRITICAL", "weight": 23116.11, "declared_value": 17380.7285}, {"container_id": "51124576", "importer": "IMP_0392", "origin": "DE", "destination": "US", "risk_score": 0.9933, "risk_level": "CRITICAL", "weight": 11572.3, "declared_value": 379228.514}, {"container_id": "68915317", "importer": "IMP_0306", "origin": "AE", "destination": "ZA", "risk_score": 0.993, "risk_level": "CRITICAL", "weight": 21325.99, "declared_value": 394551.0013}, {"container_id": "57629398", "importer": "IMP_0312", "origin": "SG", "destination": "IN", "risk_score": 0.9929000000000001, "risk_level": "CRITICAL", "weight": 10561.52, "declared_value": 478926.3022}, {"container_id": "66909172", "importer": "IMP_0052", "origin": "DE", "destination": "US", "risk_score": 0.9929000000000001, "risk_level": "CRITICAL", "weight": 28739.44, "declared_value": 66092.8456}, {"container_id": "24871349", "importer": "IMP_0226", "origin": "VN", "destination": "FR", "risk_score": 0.9928, "risk_level": "CRITICAL", "weight": 10965.5, "declared_value": 199423.073}, {"container_id": "17885502", "importer": "IMP_0239", "origin": "VN", "destination": "FR", "risk_score": 0.9926, "risk_level": "CRITICAL", "weight": 18088.97, "declared_value": 262757.4452}, {"container_id": "72724537", "importer": "IMP_0071", "origin": "JP", "destination": "AU", "risk_score": 0.9923000000000001, "risk_level": "CRITICAL", "weight": 9851.08, "declared_value": 688688.2561}, {"container_id": "81950640", "importer": "IMP_0151", "origin": "DE", "destination": "US", "risk_score": 0.992, "risk_level": "CRITICAL", "weight": 6664.54, "declared_value": 31433.2937}, {"container_id": "51674551", "importer": "IMP_0234", "origin": "SG", "destination": "IN", "risk_score": 0.9918, "risk_level": "CRITICAL", "weight": 19917.36, "declared_value": 552711.4231}, {"container_id": "20900554", "importer": "IMP_0113", "origin": "JP", "destination": "AU", "risk_score": 0.9918, "risk_level": "CRITICAL", "weight": 3401.77, "declared_value": 280596.4413}, {"container_id": "26172771", "importer": "IMP_0353", "origin": "CN", "destination": "DE", "risk_score": 0.9914000000000001, "risk_level": "CRITICAL", "weight": 11000.5, "declared_value": 179649.4534}, {"container_id": "66458039", "importer": "IMP_0169", "origin": "KR", "destination": "US", "risk_score": 0.9914000000000001, "risk_level": "CRITICAL", "weight": 19383.58, "declared_value": 44647.7249}, {"container_id": "28378119", "importer": "IMP_0165", "origin": "AE", "destination": "ZA", "risk_score": 0.9911, "risk_level": "CRITICAL", "weight": 18687.12, "declared_value": 217615.4268}, {"container_id": "73216721", "importer": "IMP_0056", "origin": "KR", "destination": "US", "risk_score": 0.9904000000000001, "risk_level": "CRITICAL", "weight": 17421.94, "declared_value": 92621.6285}, {"container_id": "74760497", "importer": "IMP_0373", "origin": "DE", "destination": "US", "risk_score": 0.9901000000000001, "risk_level": "CRITICAL", "weight": 23353.01, "declared_value": 479655.8113}, {"container_id": "69632326", "importer": "IMP_0382", "origin": "DE", "destination": "US", "risk_score": 0.9894, "risk_level": "CRITICAL", "weight": 22692.08, "declared_value": 22113.4507}, {"container_id": "36748223", "importer": "IMP_0014", "origin": "SG", "destination": "IN", "risk_score": 0.9886, "risk_level": "CRITICAL", "weight": 21849.93, "declared_value": 690652.7254}, {"container_id": "65042280", "importer": "IMP_0305", "origin": "VN", "destination": "FR", "risk_score": 0.9884999999999999, "risk_level": "CRITICAL", "weight": 13039.85, "declared_value": 237044.4349}, {"container_id": "60393297", "importer": "IMP_0185", "origin": "KR", "destination": "US", "risk_score": 0.9882, "risk_level": "CRITICAL", "weight": 8245.83, "declared_value": 132313.7489}, {"container_id": "89327506", "importer": "IMP_0366", "origin": "DE", "destination": "US", "risk_score": 0.9881, "risk_level": "CRITICAL", "weight": 17534.56, "declared_value": 62497.4374}, {"container_id": "48184471", "importer": "IMP_0177", "origin": "JP", "destination": "AU", "risk_score": 0.9876, "risk_level": "CRITICAL", "weight": 12646.57, "declared_value": 323269.4007}], "total": 5465, "page": 1, "limit": 50, "total_pages": 110}