{"data": [{"container_id": "40527766", "importer": "IMP_0212", "exporter": "EXP_0349", "origin": "DE", "destination": "US", "hs_code": "625168", "weight": 15514.33, "declared_weight": 12476.56, "declared_value": 264149.3806, "risk_score": 0.9995, "risk_level": "CRITICAL", "entity_trust_score": 14.5549, "weight_deviation_percent": 24.3478, "seal_tamper_prob": 0.6124, "tax_evasion_prob": 0.4011}, {"container_id": "85601517", "importer": "IMP_0231", "exporter": "EXP_0253", "origin": "KR", "destination": "US", "hs_code": "844788", "weight": 22114.32, "declared_weight": 21466.64, "declared_value": 48835.1483, "risk_score": 0.9994, "risk_level": "CRITICAL", "entity_trust_score": 28.0547, "weight_deviation_percent": 3.0171, "seal_tamper_prob": 0.3272, "tax_evasion_prob": 0.2166}, {"container_id": "20669969", "importer": "IMP_0305", "exporter": "EXP_0251", "origin": "DE", "destination": "US", "hs_code": "304036", "weight": 19021.82, "declared_weight": 17397.4, "declared_value": 64668.2434, "risk_score": 0.9993000000000001, "risk_level": "CRITICAL", "entity_trust_score": 27.8608, "weight_deviation_percent": 9.3371, "seal_tamper_prob": 0.7671, "tax_evasion_prob": 0.8121}, {"container_id": "21006975", "importer": "IMP_0053", "exporter": "EXP_0187", "origin": "DE", "destination": "US", "hs_code": "856098", "weight": 10386.99, "declared_weight": 6368.5, "declared_value": 327279.2296, "risk_score": 0.9990000000000001, "risk_level": "CRITICAL", "entity_trust_score": 27.4822, "weight_deviation_percent": 63.0995, "seal_tamper_prob": 0.2087, "tax_evasion_prob": 0.9957}, {"container_id": "40631460", "importer": "IMP_0024", "exporter": "EXP_0343", "origin": "VN", "destination": "FR", "hs_code": "849433", "weight": 6286.59, "declared_weight": 4611.84, "declared_value": 39890.9941, "risk_score": 0.9987999999999999, "risk_level": "CRITICAL", "entity_trust_score": 88.6809, "weight_deviation_percent": 36.3141, "seal_tamper_prob": 0.1751, "tax_evasion_prob": 0.4248}, {"container_id": "68569336", "importer": "IMP_0305", "exporter": "EXP_0303", "origin": "VN", "destination": "FR", "hs_code": "856506", "weight": 16562.79, "declared_weight": 13336.52, "declared_value": 399641.5985, "risk_score": 0.9987, "risk_level": "CRITICAL", "entity_trust_score": 93.421, "weight_deviation_percent": 24.1912, "seal_tamper_prob": 0.6919, "tax_evasion_prob": 0.7823}, {"container_id": "76437578", "importer": "IMP_0214", "exporter": "EXP_0076", "origin": "CN", "destination": "DE", "hs_code": "607489", "weight": 27344.92, "declared_weight": 25965.58, "declared_value": 208293.7732, "risk_score": 0.9986, "risk_level": "CRITICAL", "entity_trust_score": 10.4834, "weight_deviation_percent": 5.3122, "seal_tamper_prob": 0.0794, "tax_evasion_prob": 0.5365}, {"container_id": "16203705", "importer": "IMP_0097", "exporter": "EXP_0285", "origin": "KR", "destination": "US", "hs_code": "879727", "weight": 27903.96, "declared_weight": 25715.96, "declared_value": 454459.296, "risk_score": 0.9983, "risk_level": "CRITICAL", "entity_trust_score": 93.8719, "weight_deviation_percent": 8.5083, "seal_tamper_prob": 0.2716, "tax_evasion_prob": 0.3401}, {"container_id": "77329318", "importer": "IMP_0347", "exporter": "EXP_0033", "origin": "JP", "destination": "AU", "hs_code": "612398", "weight": 24125.17, "declared_weight": 22554.48, "declared_value": 704762.9785, "risk_score": 0.9978, "risk_level": "CRITICAL", "entity_trust_score": 65.9133, "weight_deviation_percent": 6.964, "seal_tamper_prob": 0.5327, "tax_evasion_prob": 0.3501}, {"container_id": "53159918", "importer": "IMP_0124", "exporter": "EXP_0291", "origin": "KR", "destination": "US", "hs_code": "851105", "weight": 21968.96, "declared_weight": 19433.58, "declared_value": 458671.4998, "risk_score": 0.9978, "risk_level": "CRITICAL", "entity_trust_score": 94.4895, "weight_deviation_percent": 13.0464, "seal_tamper_prob": 0.9301, "tax_evasion_prob": 0.3286}, {"container_id": "56552436", "importer": "IMP_0145", "exporter": "EXP_0285", "origin": "SG", "destination": "IN", "hs_code": "376269", "weight": 26184.8, "declared_weight": 24909.34, "declared_value": 140514.3178, "risk_score": 0.9978, "risk_level": "CRITICAL", "entity_trust_score": 87.1284, "weight_deviation_percent": 5.1204, "seal_tamper_prob": 0.7511, "tax_evasion_prob": 0.7336}, {"container_id": "60811161", "importer": "IMP_0294", "exporter": "EXP_0142", "origin": "DE", "destination": "US", "hs_code": "362774", "weight": 4435.67, "declared_weight": 3116.12, "declared_value": 174748.8519, "risk_score": 0.9975, "risk_level": "CRITICAL", "entity_trust_score": 10.8348, "weight_deviation_percent": 42.3459, "seal_tamper_prob": 0.3894, "tax_evasion_prob": 0.6992}, {"container_id": "12591489", "importer": "IMP_0085", "exporter": "EXP_0118", "origin": "DE", "destination": "US", "hs_code": "296384", "weight": 26146.52, "declared_weight": 23395.16, "declared_value": 66762.5806, "risk_score": 0.9974, "risk_level": "CRITICAL", "entity_trust_score": 14.131, "weight_deviation_percent": 11.7604, "seal_tamper_prob": 0.2596, "tax_evasion_prob": 0.611}, {"container_id": "47489996", "importer": "IMP_0250", "exporter": "EXP_0155", "origin": "JP", "destination": "AU", "hs_code": "611644", "weight": 3886.84, "declared_weight": 2332.84, "declared_value": 729352.713, "risk_score": 0.9965999999999999, "risk_level": "CRITICAL", "entity_trust_score": 96.023, "weight_deviation_percent": 66.6141, "seal_tamper_prob": 0.3272, "tax_evasion_prob": 0.3147}, {"container_id": "40315391", "importer": "IMP_0334", "exporter": "EXP_0112", "origin": "DE", "destination": "US", "hs_code": "877789", "weight": 12818.13, "declared_weight": 10506.96, "declared_value": 96532.0059, "risk_score": 0.9965, "risk_level": "CRITICAL", "entity_trust_score": 86.2708, "weight_deviation_percent": 21.9966, "seal_tamper_prob": 0.9498, "tax_evasion_prob": 0.7464}, {"container_id": "62462868", "importer": "IMP_0365", "exporter": "EXP_0201", "origin": "SG", "destination": "IN", "hs_code": "874313", "weight": 22774.09, "declared_weight": 19171.18, "declared_value": 172463.1163, "risk_score": 0.996, "risk_level": "CRITICAL", "entity_trust_score": 64.3049, "weight_deviation_percent": 18.7934, "seal_tamper_prob": 0.0127, "tax_evasion_prob": 0.498}, {"container_id": "87852754", "importer": "IMP_0340", "exporter": "EXP_0210", "origin": "KR", "destination": "US", "hs_code": "872351", "weight": 14958.52, "declared_weight": 12111.07, "declared_value": 203038.0732, "risk_score": 0.9956999999999999, "risk_level": "CRITICAL", "entity_trust_score": 24.019, "weight_deviation_percent": 23.5111, "seal_tamper_prob": 0.8695, "tax_evasion_prob": 0.2822}, {"container_id": "50564802", "importer": "IMP_0012", "exporter": "EXP_0383", "origin": "AE", "destination": "ZA", "hs_code": "874455", "weight": 15364.58, "declared_weight": 12083.54, "declared_value": 186285.9774, "risk_score": 0.9956999999999999, "risk_level": "CRITICAL", "entity_trust_score": 98.7596, "weight_deviation_percent": 27.153, "seal_tamper_prob": 0.263, "tax_evasion_prob": 0.9081}, {"container_id": "54685175", "importer": "IMP_0182", "exporter": "EXP_0397", "origin": "KR", "destination": "US", "hs_code": "844037", "weight": 19902.28, "declared_weight": 18133.22, "declared_value": 279286.5195, "risk_score": 0.9954000000000001, "risk_level": "CRITICAL", "entity_trust_score": 78.487, "weight_deviation_percent": 9.7559, "seal_tamper_prob": 0.6023, "tax_evasion_prob": 0.0404}, {"container_id": "27334894", "importer": "IMP_0101", "exporter": "EXP_0147", "origin": "DE", "destination": "US", "hs_code": "879515", "weight": 24148.66, "declared_weight": 22977.76, "declared_value": 372677.3609, "risk_score": 0.9953, "risk_level": "CRITICAL", "entity_trust_score": 67.504, "weight_deviation_percent": 5.0958, "seal_tamper_prob": 0.2402, "tax_evasion_prob": 0.4432}, {"container_id": "76344448", "importer": "IMP_0204", "exporter": "EXP_0025", "origin": "DE", "destination": "US", "hs_code": "317338", "weight": 10676.88, "declared_weight": 8911.92, "declared_value": 18380.4194, "risk_score": 0.995, "risk_level": "CRITICAL", "entity_trust_score": 35.3861, "weight_deviation_percent": 19.8045, "seal_tamper_prob": 0.0926, "tax_evasion_prob": 0.483}, {"container_id": "38471620", "importer": "IMP_0267", "exporter": "EXP_0079", "origin": "SG", "destination": "IN", "hs_code": "621242", "weight": 16466.41, "declared_weight": 14235.34, "declared_value": 78858.7535, "risk_score": 0.9948999999999999, "risk_level": "CRITICAL", "entity_trust_score": 22.8179, "weight_deviation_percent": 15.6728, "seal_tamper_prob": 0.933, "tax_evasion_prob": 0.1491}, {"container_id": "53715094", "importer": "IMP_0396", "exporter": "EXP_0115", "origin": "CN", "destination": "US", "hs_code": "387434", "weight": 16830.96, "declared_weight": 14735.76, "declared_value": 162881.4044, "risk_score": 0.9948, "risk_level": "CRITICAL", "entity_trust_score": 78.891, "weight_deviation_percent": 14.2185, "seal_tamper_prob": 0.9666, "tax_evasion_prob": 0.2569}, {"container_id": "46375359", "importer": "IMP_0189", "exporter": "EXP_0116", "origin": "CN", "destination": "US", "hs_code": "875599", "weight": 28512.45, "declared_weight": 27876.92, "declared_value": 691510.954, "risk_score": 0.9943000000000001, "risk_level": "CRITICAL", "entity_trust_score": 50.9881, "weight_deviation_percent": 2.2798, "seal_tamper_prob": 0.3405, "tax_evasion_prob": 0.0306}, {"container_id": "79384728", "importer": "IMP_0074", "exporter": "EXP_0357", "origin": "VN", "destination": "FR", "hs_code": "876016", "weight": 16637.16, "declared_weight": 14875.14, "declared_value": 103279.5189, "risk_score": 0.9942, "risk_level": "CRITICAL", "entity_trust_score": 95.2932, "weight_deviation_percent": 11.8454, "seal_tamper_prob": 0.5704, "tax_evasion_prob": 0.5971}, {"container_id": "29270294", "importer": "IMP_0217", "exporter": "EXP_0160", "origin": "VN", "destination": "FR", "hs_code": "854417", "weight": 16236.71, "declared_weight": 13977.96, "declared_value": 155078.0959, "risk_score": 0.9940000000000001, "risk_level": "CRITICAL", "entity_trust_score": 77.8688, "weight_deviation_percent": 16.1594, "seal_tamper_prob": 0.932, "tax_evasion_prob": 0.9327}, {"container_id": "28897875", "importer": "IMP_0331", "exporter": "EXP_0178", "origin": "JP", "destination": "AU", "hs_code": "281560", "weight": 24422.27, "declared_weight": 23272.24, "declared_value": 48728.8749, "risk_score": 0.9939, "risk_level": "CRITICAL", "entity_trust_score": 97.6224, "weight_deviation_percent": 4.9416, "seal_tamper_prob": 0.9586, "tax_evasion_prob": 0.8802}, {"container_id": "76849184", "importer": "IMP_0374", "exporter": "EXP_0084", "origin": "KR", "destination": "US", "hs_code": "621891", "weight": 29441.51, "declared_weight": 26493.05, "declared_value": 735817.7377, "risk_score": 0.9937, "risk_level": "CRITICAL", "entity_trust_score": 79.0883, "weight_deviation_percent": 11.1292, "seal_tamper_prob": 0.8164, "tax_evasion_prob": 0.1533}, {"container_id": "90690529", "importer": "IMP_0351", "exporter": "EXP_0290", "origin": "DE", "destination": "US", "hs_code": "620731", "weight": 23116.11, "declared_weight": 19755.03, "declared_value": 17380.7285, "risk_score": 0.9934000000000001, "risk_level": "CRITICAL", "entity_trust_score": 29.2516, "weight_deviation_percent": 17.0138, "seal_tamper_prob": 0.2364, "tax_evasion_prob": 0.6113}, {"container_id": "51124576", "importer": "IMP_0392", "exporter": "EXP_0129", "origin": "DE", "destination": "US", "hs_code": "609864", "weight": 11572.3, "declared_weight": 10653.12, "declared_value": 379228.514, "risk_score": 0.9933, "risk_level": "CRITICAL", "entity_trust_score": 20.4987, "weight_deviation_percent": 8.6283, "seal_tamper_prob": 0.93, "tax_evasion_prob": 0.4849}, {"container_id": "68915317", "importer": "IMP_0306", "exporter": "EXP_0253", "origin": "AE", "destination": "ZA", "hs_code": "854389", "weight": 21325.99, "declared_weight": 17965.03, "declared_value": 394551.0013, "risk_score": 0.993, "risk_level": "CRITICAL", "entity_trust_score": 36.8859, "weight_deviation_percent": 18.7083, "seal_tamper_prob": 0.0755, "tax_evasion_prob": 0.6601}, {"container_id": "57629398", "importer": "IMP_0312", "exporter": "EXP_0187", "origin": "SG", "destination": "IN", "hs_code": "843229", "weight": 10561.52, "declared_weight": 7511.45, "declared_value": 478926.3022, "risk_score": 0.9929000000000001, "risk_level": "CRITICAL", "entity_trust_score": 39.0222, "weight_deviation_percent": 40.6056, "seal_tamper_prob": 0.9903, "tax_evasion_prob": 0.518}, {"container_id": "66909172", "importer": "IMP_0052", "exporter": "EXP_0337", "origin": "DE", "destination": "US", "hs_code": "339316", "weight": 28739.44, "declared_weight": 25369.1, "declared_value": 66092.8456, "risk_score": 0.9929000000000001, "risk_level": "CRITICAL", "entity_trust_score": 51.7128, "weight_deviation_percent": 13.2852, "seal_tamper_prob": 0.0567, "tax_evasion_prob": 0.5531}, {"container_id": "24871349", "importer": "IMP_0226", "exporter": "EXP_0060", "origin": "VN", "destination": "FR", "hs_code": "857200", "weight": 10965.5, "declared_weight": 8445.75, "declared_value": 199423.073, "risk_score": 0.9928, "risk_level": "CRITICAL", "entity_trust_score": 60.4317, "weight_deviation_percent": 29.8345, "seal_tamper_prob": 0.9853, "tax_evasion_prob": 0.7311}, {"container_id": "17885502", "importer": "IMP_0239", "exporter": "EXP_0247", "origin": "VN", "destination": "FR", "hs_code": "845566", "weight": 18088.97, "declared_weight": 15069.69, "declared_value": 262757.4452, "risk_score": 0.9926, "risk_level": "CRITICAL", "entity_trust_score": 82.6714, "weight_deviation_percent": 20.0354, "seal_tamper_prob": 0.6396, "tax_evasion_prob": 0.3861}, {"container_id": "72724537", "importer": "IMP_0071", "exporter": "EXP_0006", "origin": "JP", "destination": "AU", "hs_code": "852466", "weight": 9851.08, "declared_weight": 8407.52, "declared_value": 688688.2561, "risk_score": 0.9923000000000001, "risk_level": "CRITICAL", "entity_trust_score": 26.6465, "weight_deviation_percent": 17.1699, "seal_tamper_prob": 0.4941, "tax_evasion_prob": 0.6001}, {"container_id": "81950640", "importer": "IMP_0151", "exporter": "EXP_0396", "origin": "DE", "destination": "US", "hs_code": "847091", "weight": 6664.54, "declared_weight": 3451.91, "declared_value": 31433.2937, "risk_score": 0.992, "risk_level": "CRITICAL", "entity_trust_score": 61.601, "weight_deviation_percent": 93.0682, "seal_tamper_prob": 0.69, "tax_evasion_prob": 0.3465}, {"container_id": "51674551", "importer": "IMP_0234", "exporter": "EXP_0264", "origin": "SG", "destination": "IN", "hs_code": "857590", "weight": 19917.36, "declared_weight": 18408.39, "declared_value": 552711.4231, "risk_score": 0.9918, "risk_level": "CRITICAL", "entity_trust_score": 52.0859, "weight_deviation_percent": 8.1972, "seal_tamper_prob": 0.4139, "tax_evasion_prob": 0.6591}, {"container_id": "20900554", "importer": "IMP_0113", "exporter": "EXP_0009", "origin": "JP", "destination": "AU", "hs_code": "852689", "weight": 3401.77, "declared_weight": 3860.13, "declared_value": 280596.4413, "risk_score": 0.9918, "risk_level": "CRITICAL", "entity_trust_score": 57.6876, "weight_deviation_percent": -11.8742, "seal_tamper_prob": 0.6777, "tax_evasion_prob": 0.7858}, {"container_id": "26172771", "importer": "IMP_0353", "exporter": "EXP_0337", "origin": "CN", "destination": "DE", "hs_code": "633980", "weight": 11000.5, "declared_weight": 8478.19, "declared_value": 179649.4534, "risk_score": 0.9914000000000001, "risk_level": "CRITICAL", "entity_trust_score": 93.8343, "weight_deviation_percent": 29.7506, "seal_tamper_prob": 0.9113, "tax_evasion_prob": 0.9124}, {"container_id": "66458039", "importer": "IMP_0169", "exporter": "EXP_0081", "origin": "KR", "destination": "US", "hs_code": "878249", "weight": 19383.58, "declared_weight": 15950.41, "declared_value": 44647.7249, "risk_score": 0.9914000000000001, "risk_level": "CRITICAL", "entity_trust_score": 79.1756, "weight_deviation_percent": 21.524, "seal_tamper_prob": 0.7306, "tax_evasion_prob": 0.9694}, {"container_id": "28378119", "importer": "IMP_0165", "exporter": "EXP_0321", "origin": "AE", "destination": "ZA", "hs_code": "875336", "weight": 18687.12, "declared_weight": 16273.96, "declared_value": 217615.4268, "risk_score": 0.9911, "risk_level": "CRITICAL", "entity_trust_score": 31.9743, "weight_deviation_percent": 14.8284, "seal_tamper_prob": 0.7548, "tax_evasion_prob": 0.5091}, {"container_id": "73216721", "importer": "IMP_0056", "exporter": "EXP_0278", "origin": "KR", "destination": "US", "hs_code": "874670", "weight": 17421.94, "declared_weight": 14719.6, "declared_value": 92621.6285, "risk_score": 0.9904000000000001, "risk_level": "CRITICAL", "entity_trust_score": 63.0794, "weight_deviation_percent": 18.3588, "seal_tamper_prob": 0.2771, "tax_evasion_prob": 0.8336}, {"container_id": "74760497", "importer": "IMP_0373", "exporter": "EXP_0339", "origin": "DE", "destination": "US", "hs_code": "875806", "weight": 23353.01, "declared_weight": 20496.93, "declared_value": 479655.8113, "risk_score": 0.9901000000000001, "risk_level": "CRITICAL", "entity_trust_score": 94.0613, "weight_deviation_percent": 13.9342, "seal_tamper_prob": 0.9846, "tax_evasion_prob": 0.8948}, {"container_id": "69632326", "importer": "IMP_0382", "exporter": "EXP_0023", "origin": "DE", "destination": "US", "hs_code": "609433", "weight": 22692.08, "declared_weight": 21222.98, "declared_value": 22113.4507, "risk_score": 0.9894, "risk_level": "CRITICAL", "entity_trust_score": 70.4991, "weight_deviation_percent": 6.9222, "seal_tamper_prob": 0.3694, "tax_evasion_prob": 0.7325}, {"container_id": "36748223", "importer": "IMP_0014", "exporter": "EXP_0398", "origin": "SG", "destination": "IN", "hs_code": "625719", "weight": 21849.93, "declared_weight": 21026.44, "declared_value": 690652.7254, "risk_score": 0.9886, "risk_level": "CRITICAL", "entity_trust_score": 65.9192, "weight_deviation_percent": 3.9164, "seal_tamper_prob": 0.9122, "tax_evasion_prob": 0.751}, {"container_id": "65042280", "importer": "IMP_0305", "exporter": "EXP_0241", "origin": "VN", "destination": "FR", "hs_code": "847887", "weight": 13039.85, "declared_weight": 10488.96, "declared_value": 237044.4349, "risk_score": 0.9884999999999999, "risk_level": "CRITICAL", "entity_trust_score": 16.2715, "weight_deviation_percent": 24.3198, "seal_tamper_prob": 0.471, "tax_evasion_prob": 0.6466}, {"container_id": "60393297", "importer": "IMP_0185", "exporter": "EXP_0176", "origin": "KR", "destination": "US", "hs_code": "626735", "weight": 8245.83, "declared_weight": 6152.93, "declared_value": 132313.7489, "risk_score": 0.9882, "risk_level": "CRITICAL", "entity_trust_score": 17.7563, "weight_deviation_percent": 34.0147, "seal_tamper_prob": 0.1371, "tax_evasion_prob": 0.9936}, {"container_id": "89327506", "importer": "IMP_0366", "exporter": "EXP_0369", "origin": "DE", "destination": "US", "hs_code": "342381", "weight": 17534.56, "declared_weight": 14642.34, "declared_value": 62497.4374, "risk_score": 0.9881, "risk_level": "CRITICAL", "entity_trust_score": 82.6649, "weight_deviation_percent": 19.7524, "seal_tamper_prob": 0.0487, "tax_evasion_prob": 0.8745}, {"container_id": "48184471", "importer": "IMP_0177", "exporter": "EXP_0289", "origin": "JP", "destination": "AU", "hs_code": "851188", "weight": 12646.57, "declared_weight": 11171.25, "declared_value": 323269.4007, "risk_score": 0.9876, "risk_level": "CRITICAL", "entity_trust_score": 24.4092, "weight_deviation_percent": 13.2064, "seal_tamper_prob": 0.4955, "tax_evasion_prob": 0.3905}], "total": 1927, "page": 1, "limit": 50, "total_pages": 39}