{"data": [{"container_id": "23711710", "importer": "IMP_0254", "exporter": "EXP_0072", "origin": "DE", "destination": "US", "hs_code": "388912", "weight": 13392.91, "declared_weight": 11543.74, "declared_value": 560676.5924, "risk_score": 0.7998999999999999, "risk_level": "HIGH", "entity_trust_score": 15.9839, "weight_deviation_percent": 16.0188, "seal_tamper_prob": 0.944, "tax_evasion_prob": 0.8409}, {"container_id": "52020971", "importer": "IMP_0286", "exporter": "EXP_0061", "origin": "CN", "destination": "DE", "hs_code": "874180", "weight": 16234.37, "declared_weight": 13853.49, "declared_value": 797473.4443, "risk_score": 0.7998999999999999, "risk_level": "HIGH", "entity_trust_score": 28.069, "weight_deviation_percent": 17.1861, "seal_tamper_prob": 0.4323, "tax_evasion_prob": 0.1233}, {"container_id": "68824448", "importer": "IMP_0167", "exporter": "EXP_0049", "origin": "CN", "destination": "US", "hs_code": "840795", "weight": 13218.02, "declared_weight": 10440.84, "declared_value": 9421.3934, "risk_score": 0.7998000000000001, "risk_level": "HIGH", "entity_trust_score": 34.7503, "weight_deviation_percent": 26.5992, "seal_tamper_prob": 0.2906, "tax_evasion_prob": 0.7066}, {"container_id": "65429794", "importer": "IMP_0093", "exporter": "EXP_0394", "origin": "JP", "destination": "AU", "hs_code": "602900", "weight": 30374.22, "declared_weight": 26935.23, "declared_value": 926619.2936, "risk_score": 0.7997, "risk_level": "HIGH", "entity_trust_score": 15.3846, "weight_deviation_percent": 12.7676, "seal_tamper_prob": 0.6146, "tax_evasion_prob": 0.1599}, {"container_id": "36303955", "importer": "IMP_0161", "exporter": "EXP_0235", "origin": "SG", "destination": "IN", "hs_code": "870410", "weight": 27176.16, "declared_weight": 24320.65, "declared_value": 33338.9208, "risk_score": 0.7997, "risk_level": "HIGH", "entity_trust_score": 56.7409, "weight_deviation_percent": 11.7411, "seal_tamper_prob": 0.5169, "tax_evasion_prob": 0.8842}, {"container_id": "11969314", "importer": "IMP_0178", "exporter": "EXP_0145", "origin": "CN", "destination": "US", "hs_code": "855114", "weight": 14454.27, "declared_weight": 12607.1, "declared_value": 83747.1135, "risk_score": 0.7996, "risk_level": "HIGH", "entity_trust_score": 98.0705, "weight_deviation_percent": 14.6518, "seal_tamper_prob": 0.4964, "tax_evasion_prob": 0.8385}, {"container_id": "26508900", "importer": "IMP_0302", "exporter": "EXP_0213", "origin": "DE", "destination": "US", "hs_code": "333344", "weight": 29578.85, "declared_weight": 27645.4, "declared_value": 18628.531, "risk_score": 0.7996, "risk_level": "HIGH", "entity_trust_score": 54.7272, "weight_deviation_percent": 6.9937, "seal_tamper_prob": 0.5028, "tax_evasion_prob": 0.3068}, {"container_id": "83864266", "importer": "IMP_0125", "exporter": "EXP_0287", "origin": "VN", "destination": "FR", "hs_code": "330641", "weight": 6913.59, "declared_weight": 5394.62, "declared_value": 11790.9129, "risk_score": 0.7994, "risk_level": "HIGH", "entity_trust_score": 52.0703, "weight_deviation_percent": 28.1571, "seal_tamper_prob": 0.909, "tax_evasion_prob": 0.3753}, {"container_id": "40559435", "importer": "IMP_0325", "exporter": "EXP_0086", "origin": "KR", "destination": "US", "hs_code": "870802", "weight": 22102.91, "declared_weight": 19332.19, "declared_value": 108658.7388, "risk_score": 0.7994, "risk_level": "HIGH", "entity_trust_score": 19.6245, "weight_deviation_percent": 14.3322, "seal_tamper_prob": 0.8156, "tax_evasion_prob": 0.2373}, {"container_id": "32114767", "importer": "IMP_0395", "exporter": "EXP_0234", "origin": "CN", "destination": "US", "hs_code": "849177", "weight": 10081.9, "declared_weight": 7814.99, "declared_value": 165863.7202, "risk_score": 0.7994, "risk_level": "HIGH", "entity_trust_score": 59.9429, "weight_deviation_percent": 29.0072, "seal_tamper_prob": 0.6437, "tax_evasion_prob": 0.0295}, {"container_id": "12294314", "importer": "IMP_0093", "exporter": "EXP_0052", "origin": "KR", "destination": "US", "hs_code": "873288", "weight": 28195.59, "declared_weight": 23930.52, "declared_value": 40526.691, "risk_score": 0.7994, "risk_level": "HIGH", "entity_trust_score": 66.3723, "weight_deviation_percent": 17.8227, "seal_tamper_prob": 0.8532, "tax_evasion_prob": 0.8832}, {"container_id": "47806963", "importer": "IMP_0307", "exporter": "EXP_0181", "origin": "JP", "destination": "AU", "hs_code": "628704", "weight": 27522.31, "declared_weight": 24347.91, "declared_value": 620349.1448, "risk_score": 0.7994, "risk_level": "HIGH", "entity_trust_score": 32.7584, "weight_deviation_percent": 13.0377, "seal_tamper_prob": 0.2418, "tax_evasion_prob": 0.7885}, {"container_id": "74183196", "importer": "IMP_0162", "exporter": "EXP_0068", "origin": "DE", "destination": "US", "hs_code": "636187", "weight": 12307.25, "declared_weight": 10482.97, "declared_value": 359020.7644, "risk_score": 0.7993000000000001, "risk_level": "HIGH", "entity_trust_score": 50.6903, "weight_deviation_percent": 17.4023, "seal_tamper_prob": 0.4556, "tax_evasion_prob": 0.8874}, {"container_id": "99800518", "importer": "IMP_0131", "exporter": "EXP_0039", "origin": "JP", "destination": "AU", "hs_code": "619458", "weight": 24788.1, "declared_weight": 22873.79, "declared_value": 445265.9264, "risk_score": 0.7992, "risk_level": "HIGH", "entity_trust_score": 27.6721, "weight_deviation_percent": 8.369, "seal_tamper_prob": 0.5458, "tax_evasion_prob": 0.4561}, {"container_id": "18650075", "importer": "IMP_0128", "exporter": "EXP_0319", "origin": "VN", "destination": "FR", "hs_code": "626892", "weight": 16623.91, "declared_weight": 14424.62, "declared_value": 269821.7362, "risk_score": 0.7992, "risk_level": "HIGH", "entity_trust_score": 64.05, "weight_deviation_percent": 15.2468, "seal_tamper_prob": 0.8082, "tax_evasion_prob": 0.6287}, {"container_id": "20604270", "importer": "IMP_0377", "exporter": "EXP_0138", "origin": "VN", "destination": "FR", "hs_code": "852857", "weight": 31345.67, "declared_weight": 27927.12, "declared_value": 513078.1499, "risk_score": 0.799, "risk_level": "HIGH", "entity_trust_score": 96.2199, "weight_deviation_percent": 12.241, "seal_tamper_prob": 0.3674, "tax_evasion_prob": 0.9721}, {"container_id": "21692077", "importer": "IMP_0252", "exporter": "EXP_0025", "origin": "CN", "destination": "DE", "hs_code": "632555", "weight": 23497.21, "declared_weight": 20867.77, "declared_value": 151835.5207, "risk_score": 0.7989, "risk_level": "HIGH", "entity_trust_score": 90.1698, "weight_deviation_percent": 12.6005, "seal_tamper_prob": 0.7571, "tax_evasion_prob": 0.2219}, {"container_id": "37542772", "importer": "IMP_0001", "exporter": "EXP_0037", "origin": "DE", "destination": "US", "hs_code": "331620", "weight": 12812.64, "declared_weight": 11140.3, "declared_value": 266172.6267, "risk_score": 0.7988, "risk_level": "HIGH", "entity_trust_score": 22.575, "weight_deviation_percent": 15.0116, "seal_tamper_prob": 0.0623, "tax_evasion_prob": 0.6263}, {"container_id": "45691641", "importer": "IMP_0329", "exporter": "EXP_0268", "origin": "DE", "destination": "US", "hs_code": "611665", "weight": 24872.73, "declared_weight": 22367.11, "declared_value": 571738.5845, "risk_score": 0.7987000000000001, "risk_level": "HIGH", "entity_trust_score": 19.4937, "weight_deviation_percent": 11.2023, "seal_tamper_prob": 0.5426, "tax_evasion_prob": 0.249}, {"container_id": "51497956", "importer": "IMP_0235", "exporter": "EXP_0137", "origin": "CN", "destination": "US", "hs_code": "850097", "weight": 13984.96, "declared_weight": 13877.39, "declared_value": 228296.197, "risk_score": 0.7987000000000001, "risk_level": "HIGH", "entity_trust_score": 23.9015, "weight_deviation_percent": 0.7751, "seal_tamper_prob": 0.4633, "tax_evasion_prob": 0.6654}, {"container_id": "84771894", "importer": "IMP_0214", "exporter": "EXP_0252", "origin": "CN", "destination": "DE", "hs_code": "378845", "weight": 16241.45, "declared_weight": 13723.88, "declared_value": 195510.343, "risk_score": 0.7986, "risk_level": "HIGH", "entity_trust_score": 56.5401, "weight_deviation_percent": 18.3444, "seal_tamper_prob": 0.9503, "tax_evasion_prob": 0.7019}, {"container_id": "73059206", "importer": "IMP_0155", "exporter": "EXP_0002", "origin": "JP", "destination": "AU", "hs_code": "844998", "weight": 10138.97, "declared_weight": 7485.43, "declared_value": 226211.0696, "risk_score": 0.7985, "risk_level": "HIGH", "entity_trust_score": 14.4174, "weight_deviation_percent": 35.4494, "seal_tamper_prob": 0.3326, "tax_evasion_prob": 0.3975}, {"container_id": "72940438", "importer": "IMP_0034", "exporter": "EXP_0094", "origin": "CN", "destination": "DE", "hs_code": "874795", "weight": 14609.48, "declared_weight": 13121.97, "declared_value": 38703.6806, "risk_score": 0.7985, "risk_level": "HIGH", "entity_trust_score": 42.1805, "weight_deviation_percent": 11.336, "seal_tamper_prob": 0.7394, "tax_evasion_prob": 0.9573}, {"container_id": "21220549", "importer": "IMP_0057", "exporter": "EXP_0167", "origin": "VN", "destination": "FR", "hs_code": "874555", "weight": 25509.47, "declared_weight": 22234.16, "declared_value": 8990.3573, "risk_score": 0.7984, "risk_level": "HIGH", "entity_trust_score": 43.333, "weight_deviation_percent": 14.731, "seal_tamper_prob": 0.812, "tax_evasion_prob": 0.2883}, {"container_id": "88702646", "importer": "IMP_0081", "exporter": "EXP_0205", "origin": "JP", "destination": "AU", "hs_code": "846030", "weight": 15462.17, "declared_weight": 13340.19, "declared_value": 92106.3835, "risk_score": 0.7981999999999999, "risk_level": "HIGH", "entity_trust_score": 28.5703, "weight_deviation_percent": 15.9067, "seal_tamper_prob": 0.622, "tax_evasion_prob": 0.2825}, {"container_id": "19439511", "importer": "IMP_0223", "exporter": "EXP_0360", "origin": "CN", "destination": "DE", "hs_code": "843687", "weight": 28856.7, "declared_weight": 25285.41, "declared_value": 439774.2442, "risk_score": 0.7981, "risk_level": "HIGH", "entity_trust_score": 84.0551, "weight_deviation_percent": 14.1239, "seal_tamper_prob": 0.1903, "tax_evasion_prob": 0.8222}, {"container_id": "59362871", "importer": "IMP_0106", "exporter": "EXP_0228", "origin": "CN", "destination": "DE", "hs_code": "622144", "weight": 22345.9, "declared_weight": 18553.79, "declared_value": 433750.5143, "risk_score": 0.7979999999999999, "risk_level": "HIGH", "entity_trust_score": 87.3209, "weight_deviation_percent": 20.4385, "seal_tamper_prob": 0.2395, "tax_evasion_prob": 0.3747}, {"container_id": "48855172", "importer": "IMP_0216", "exporter": "EXP_0292", "origin": "CN", "destination": "US", "hs_code": "841829", "weight": 14117.1, "declared_weight": 10769.63, "declared_value": 422147.4778, "risk_score": 0.7979, "risk_level": "HIGH", "entity_trust_score": 99.3057, "weight_deviation_percent": 31.0825, "seal_tamper_prob": 0.0524, "tax_evasion_prob": 0.1585}, {"container_id": "97979821", "importer": "IMP_0238", "exporter": "EXP_0380", "origin": "JP", "destination": "AU", "hs_code": "348997", "weight": 6909.35, "declared_weight": 4984.66, "declared_value": 142407.0548, "risk_score": 0.7978000000000001, "risk_level": "HIGH", "entity_trust_score": 29.4328, "weight_deviation_percent": 38.6123, "seal_tamper_prob": 0.0163, "tax_evasion_prob": 0.9985}, {"container_id": "93828757", "importer": "IMP_0283", "exporter": "EXP_0329", "origin": "JP", "destination": "AU", "hs_code": "336900", "weight": 22322.38, "declared_weight": 19236.83, "declared_value": 562258.8083, "risk_score": 0.7978000000000001, "risk_level": "HIGH", "entity_trust_score": 34.3402, "weight_deviation_percent": 16.0398, "seal_tamper_prob": 0.9609, "tax_evasion_prob": 0.1951}, {"container_id": "30309111", "importer": "IMP_0310", "exporter": "EXP_0013", "origin": "SG", "destination": "IN", "hs_code": "620562", "weight": 27234.01, "declared_weight": 25065.37, "declared_value": 63485.0259, "risk_score": 0.7977, "risk_level": "HIGH", "entity_trust_score": 96.5705, "weight_deviation_percent": 8.6519, "seal_tamper_prob": 0.2404, "tax_evasion_prob": 0.8326}, {"container_id": "97126520", "importer": "IMP_0309", "exporter": "EXP_0346", "origin": "VN", "destination": "FR", "hs_code": "858179", "weight": 10562.53, "declared_weight": 8679.89, "declared_value": 86965.055, "risk_score": 0.7976000000000001, "risk_level": "HIGH", "entity_trust_score": 24.6211, "weight_deviation_percent": 21.6897, "seal_tamper_prob": 0.8317, "tax_evasion_prob": 0.5981}, {"container_id": "50839356", "importer": "IMP_0180", "exporter": "EXP_0205", "origin": "JP", "destination": "AU", "hs_code": "876341", "weight": 13221.45, "declared_weight": 11250.0, "declared_value": 820690.7094, "risk_score": 0.7975, "risk_level": "HIGH", "entity_trust_score": 33.753, "weight_deviation_percent": 17.524, "seal_tamper_prob": 0.9864, "tax_evasion_prob": 0.9124}, {"container_id": "70801935", "importer": "IMP_0089", "exporter": "EXP_0359", "origin": "CN", "destination": "US", "hs_code": "853762", "weight": 26934.98, "declared_weight": 23455.57, "declared_value": 225190.3062, "risk_score": 0.7974, "risk_level": "HIGH", "entity_trust_score": 45.0996, "weight_deviation_percent": 14.834, "seal_tamper_prob": 0.116, "tax_evasion_prob": 0.8036}, {"container_id": "17511220", "importer": "IMP_0084", "exporter": "EXP_0234", "origin": "DE", "destination": "US", "hs_code": "858490", "weight": 18203.38, "declared_weight": 16030.62, "declared_value": 20648.6852, "risk_score": 0.7973, "risk_level": "HIGH", "entity_trust_score": 73.013, "weight_deviation_percent": 13.5538, "seal_tamper_prob": 0.8528, "tax_evasion_prob": 0.2941}, {"container_id": "84069961", "importer": "IMP_0178", "exporter": "EXP_0314", "origin": "VN", "destination": "FR", "hs_code": "624142", "weight": 23833.15, "declared_weight": 21274.27, "declared_value": 42381.7665, "risk_score": 0.7973, "risk_level": "HIGH", "entity_trust_score": 22.3619, "weight_deviation_percent": 12.0281, "seal_tamper_prob": 0.3309, "tax_evasion_prob": 0.6843}, {"container_id": "40405549", "importer": "IMP_0251", "exporter": "EXP_0347", "origin": "CN", "destination": "DE", "hs_code": "623373", "weight": 16395.78, "declared_weight": 13973.59, "declared_value": 51422.1127, "risk_score": 0.7973, "risk_level": "HIGH", "entity_trust_score": 13.7169, "weight_deviation_percent": 17.3341, "seal_tamper_prob": 0.0127, "tax_evasion_prob": 0.2443}, {"container_id": "41284419", "importer": "IMP_0048", "exporter": "EXP_0066", "origin": "JP", "destination": "AU", "hs_code": "858968", "weight": 22193.82, "declared_weight": 19548.44, "declared_value": 83893.9242, "risk_score": 0.7973, "risk_level": "HIGH", "entity_trust_score": 61.1964, "weight_deviation_percent": 13.5324, "seal_tamper_prob": 0.0256, "tax_evasion_prob": 0.0934}, {"container_id": "39243627", "importer": "IMP_0152", "exporter": "EXP_0127", "origin": "KR", "destination": "US", "hs_code": "876409", "weight": 13846.46, "declared_weight": 11576.89, "declared_value": 397268.3964, "risk_score": 0.7972, "risk_level": "HIGH", "entity_trust_score": 34.7599, "weight_deviation_percent": 19.6043, "seal_tamper_prob": 0.6994, "tax_evasion_prob": 0.5782}, {"container_id": "53188642", "importer": "IMP_0224", "exporter": "EXP_0383", "origin": "VN", "destination": "FR", "hs_code": "873146", "weight": 29813.15, "declared_weight": 26537.01, "declared_value": 326594.1811, "risk_score": 0.7972, "risk_level": "HIGH", "entity_trust_score": 34.0428, "weight_deviation_percent": 12.3456, "seal_tamper_prob": 0.0563, "tax_evasion_prob": 0.8363}, {"container_id": "93336420", "importer": "IMP_0110", "exporter": "EXP_0327", "origin": "AE", "destination": "ZA", "hs_code": "628785", "weight": 17464.6, "declared_weight": 13112.08, "declared_value": 106307.5709, "risk_score": 0.7970999999999999, "risk_level": "HIGH", "entity_trust_score": 66.4084, "weight_deviation_percent": 33.1947, "seal_tamper_prob": 0.1096, "tax_evasion_prob": 0.6934}, {"container_id": "43067575", "importer": "IMP_0055", "exporter": "EXP_0114", "origin": "KR", "destination": "US", "hs_code": "603594", "weight": 18582.04, "declared_weight": 16342.25, "declared_value": 634287.6648, "risk_score": 0.7970999999999999, "risk_level": "HIGH", "entity_trust_score": 48.8184, "weight_deviation_percent": 13.7055, "seal_tamper_prob": 0.5396, "tax_evasion_prob": 0.5294}, {"container_id": "13953791", "importer": "IMP_0185", "exporter": "EXP_0193", "origin": "CN", "destination": "US", "hs_code": "873525", "weight": 4004.97, "declared_weight": 2508.48, "declared_value": 96214.245, "risk_score": 0.7970999999999999, "risk_level": "HIGH", "entity_trust_score": 16.4324, "weight_deviation_percent": 59.6572, "seal_tamper_prob": 0.3198, "tax_evasion_prob": 0.0984}, {"container_id": "18449397", "importer": "IMP_0241", "exporter": "EXP_0125", "origin": "CN", "destination": "US", "hs_code": "877417", "weight": 27690.36, "declared_weight": 24031.7, "declared_value": 153763.2458, "risk_score": 0.7970999999999999, "risk_level": "HIGH", "entity_trust_score": 45.941, "weight_deviation_percent": 15.2243, "seal_tamper_prob": 0.4017, "tax_evasion_prob": 0.6124}, {"container_id": "66215185", "importer": "IMP_0394", "exporter": "EXP_0337", "origin": "VN", "destination": "FR", "hs_code": "843175", "weight": 16148.27, "declared_weight": 13454.4, "declared_value": 39178.8134, "risk_score": 0.797, "risk_level": "HIGH", "entity_trust_score": 78.3618, "weight_deviation_percent": 20.0222, "seal_tamper_prob": 0.4936, "tax_evasion_prob": 0.583}, {"container_id": "15979485", "importer": "IMP_0260", "exporter": "EXP_0160", "origin": "JP", "destination": "AU", "hs_code": "338379", "weight": 27566.15, "declared_weight": 24828.6, "declared_value": 37489.8609, "risk_score": 0.797, "risk_level": "HIGH", "entity_trust_score": 65.9259, "weight_deviation_percent": 11.0258, "seal_tamper_prob": 0.772, "tax_evasion_prob": 0.449}, {"container_id": "21025300", "importer": "IMP_0381", "exporter": "EXP_0268", "origin": "AE", "destination": "ZA", "hs_code": "859453", "weight": 20815.82, "declared_weight": 20289.66, "declared_value": 17340.9716, "risk_score": 0.797, "risk_level": "HIGH", "entity_trust_score": 67.5798, "weight_deviation_percent": 2.5932, "seal_tamper_prob": 0.171, "tax_evasion_prob": 0.6366}, {"container_id": "37252287", "importer": "IMP_0231", "exporter": "EXP_0158", "origin": "DE", "destination": "US", "hs_code": "608889", "weight": 5305.56, "declared_weight": 3368.22, "declared_value": 300616.9886, "risk_score": 0.797, "risk_level": "HIGH", "entity_trust_score": 81.9725, "weight_deviation_percent": 57.5182, "seal_tamper_prob": 0.6243, "tax_evasion_prob": 0.7298}, {"container_id": "22956404", "importer": "IMP_0062", "exporter": "EXP_0364", "origin": "DE", "destination": "US", "hs_code": "306174", "weight": 6592.52, "declared_weight": 5786.16, "declared_value": 459891.8971, "risk_score": 0.7968999999999999, "risk_level": "HIGH", "entity_trust_score": 20.0535, "weight_deviation_percent": 13.936, "seal_tamper_prob": 0.9126, "tax_evasion_prob": 0.9382}, {"container_id": "26802628", "importer": "IMP_0076", "exporter": "EXP_0275", "origin": "CN", "destination": "US", "hs_code": "631871", "weight": 29192.14, "declared_weight": 26230.18, "declared_value": 185363.842, "risk_score": 0.7968999999999999, "risk_level": "HIGH", "entity_trust_score": 34.5299, "weight_deviation_percent": 11.2922, "seal_tamper_prob": 0.3466, "tax_evasion_prob": 0.491}], "total": 3538, "page": 1, "limit": 50, "total_pages": 71}